[
  {
    "ParameterKey": "InfrastructureName",
    "ParameterValue": ""
  },
  {
    "ParameterKey": "RhcosAmi",
    "ParameterValue": ""
  },
  {
    "ParameterKey": "AllowedBootstrapSshCidr",
    "ParameterValue": "0.0.0.0/0"
  },
  {
    "ParameterKey": "PublicSubnet",
    "ParameterValue": ""
  },
  {
    "ParameterKey": "MasterSecurityGroupId",
    "ParameterValue": ""
  },
  {
    "ParameterKey": "VpcId",
    "ParameterValue": ""
  },
  {
    "ParameterKey": "BootstrapIgnitionLocation",
    "ParameterValue": ""
  },
  {
    "ParameterKey": "AutoRegisterELB",
    "ParameterValue": "yes"
  },
  {
    "ParameterKey": "RegisterNlbIpTargetsLambdaArn",
    "ParameterValue": ""
  },
  {
    "ParameterKey": "ExternalApiTargetGroupArn",
    "ParameterValue": ""
  },
  {
    "ParameterKey": "InternalApiTargetGroupArn",
    "ParameterValue": ""
  },
  {
    "ParameterKey": "InternalServiceTargetGroupArn",
    "ParameterValue": ""
  }
]
