{
  "Comment": "",
  "Changes": [
    {
      "Action": "CREATE",
      "ResourceRecordSet": {
        "Name": "",
        "Type": "A",
        "AliasTarget": {
          "HostedZoneId": "",
          "DNSName": "",
          "EvaluateTargetHealth": false
        }
      }
    }
  ]
}
